-------------------------------------------------------------------------------
Test set: UserTest
-------------------------------------------------------------------------------
Tests run: 2, Failures: 0, Errors: 2, Skipped: 0, Time elapsed: 0.047 sec <<< FAILURE!
testCreateUser(UserTest)  Time elapsed: 0.031 sec  <<< ERROR!
java.lang.NullPointerException
	at UserTest.testCreateUser(UserTest.java:44)

testGenerateLoginLink(UserTest)  Time elapsed: 0 sec  <<< ERROR!
java.lang.NullPointerException
	at UserTest.testGenerateLoginLink(UserTest.java:51)

